Herramientas Cuantitativas para el Análisis Político
…
background-image: url(https://github.com/tidyverse/purrr/raw/master/man/figures/logo.png)
background-position: 95% 5%
background-size: 10%

# Iteración 
## Ejemplo de lectura de múltiples archivos

```r

data <- files %>%
  map_dfr(.f = read_csv)

data
## # A tibble: 888,023 x 52
##    codprov depto coddepto circuito mesa  electores blancos nulos `0131` `0135`
##    <chr>   <chr> <chr>    <chr>    <chr>     <dbl>   <dbl> <dbl>  <dbl>  <dbl>
##  1 01      Comu~ 001      0001     0001        343       7     6    113    138
##  2 01      Comu~ 001      0001     0002        346       6     0    101    138
##  3 01      Comu~ 001      0001     0003        345       3     7    106    139
##  4 01      Comu~ 001      0001     0004        344       8    10    105    134
##  5 01      Comu~ 001      0001     0005        343       2     7    110    125
##  6 01      Comu~ 001      0001     0006        344       9     0    125    133
##  7 01      Comu~ 001      0001     0007        344       5     7    122    120
##  8 01      Comu~ 001      0001     0008        344       4     3    106    145
##  9 01      Comu~ 001      0001     0009        346       5     4    119    126
## 10 01      Comu~ 001      0001     0010        344       3     3    102    146
## # ... with 888,013 more rows, and 42 more variables: `00024` <dbl>,
## #   `00036` <dbl>, `00037` <dbl>, `00039` <dbl>, `00050` <dbl>, `00108` <dbl>,
## #   `00001` <dbl>, `00008` <dbl>, `00005` <dbl>, `00010` <dbl>, `00011` <dbl>,
## #   `00009` <dbl>, `00002` <dbl>, `00051` <dbl>, `00004` <dbl>, `0001` <dbl>,
## #   `0003` <dbl>, `0005` <dbl>, `0014` <dbl>, `0022` <dbl>, `0030` <dbl>,
## #   `0037` <dbl>, `0050` <dbl>, `0051` <dbl>, `0053` <dbl>, `0132` <dbl>,
## #   `0133` <dbl>, `0134` <dbl>, `0136` <dbl>, `0137` <dbl>, `0138` <dbl>,
## #   `0023` <dbl>, `0038` <dbl>, `0048` <dbl>, `0056` <dbl>, `0057` <dbl>,
## #   `0059` <dbl>, `0060` <dbl>, `0254` <dbl>, `0047` <dbl>, `0013` <dbl>,
…
---

background-image: url(https://github.com/tidyverse/purrr/raw/master/man/figures/logo.png)
background-position: 95% 5%
background-size: 10%

# Iteración 
## Ejemplo de lectura de múltiples archivos

```r

data %>% 
  unnest()
## # A tibble: 888,023 x 53
##    filename codprov depto coddepto circuito mesa  electores blancos nulos `0131`
##    <chr>    <chr>   <chr> <chr>    <chr>    <chr>     <dbl>   <dbl> <dbl>  <dbl>
##  1 datos/0~ 01      Comu~ 001      0001     0001        343       7     6    113
##  2 datos/0~ 01      Comu~ 001      0001     0002        346       6     0    101
##  3 datos/0~ 01      Comu~ 001      0001     0003        345       3     7    106
##  4 datos/0~ 01      Comu~ 001      0001     0004        344       8    10    105
##  5 datos/0~ 01      Comu~ 001      0001     0005        343       2     7    110
##  6 datos/0~ 01      Comu~ 001      0001     0006        344       9     0    125
##  7 datos/0~ 01      Comu~ 001      0001     0007        344       5     7    122
##  8 datos/0~ 01      Comu~ 001      0001     0008        344       4     3    106
##  9 datos/0~ 01      Comu~ 001      0001     0009        346       5     4    119
## 10 datos/0~ 01      Comu~ 001      0001     0010        344       3     3    102
## # ... with 888,013 more rows, and 43 more variables: `0135` <dbl>,
## #   `00024` <dbl>, `00036` <dbl>, `00037` <dbl>, `00039` <dbl>, `00050` <dbl>,
## #   `00108` <dbl>, `00001` <dbl>, `00008` <dbl>, `00005` <dbl>, `00010` <dbl>,
## #   `00011` <dbl>, `00009` <dbl>, `00002` <dbl>, `00051` <dbl>, `00004` <dbl>,
## #   `0001` <dbl>, `0003` <dbl>, `0005` <dbl>, `0014` <dbl>, `0022` <dbl>,
## #   `0030` <dbl>, `0037` <dbl>, `0050` <dbl>, `0051` <dbl>, `0053` <dbl>,
## #   `0132` <dbl>, `0133` <dbl>, `0134` <dbl>, `0136` <dbl>, `0137` <dbl>,
## #   `0138` <dbl>, `0023` <dbl>, `0038` <dbl>, `0048` <dbl>, `0056` <dbl>,
## #   `0057` <dbl>, `0059` <dbl>, `0060` <dbl>, `0254` <dbl>, `0047` <dbl>,
…
