Herramientas Cuantitativas para el Análisis Político
…
--

📊 VISUALIZAR: funciones `plot_*()`, `map_*()`,`tabulate_*()`

---

### 📢 DISCURSOS

.panelset[

.panel[.panel-name[🔍Explorar]

```r
show_available_speech()
## # A tibble: 116 x 2
##    year  president            
##    <chr> <chr>                
##  1 1854  justo_jose_de_urquiza
##  2 1855  justo_jose_de_urquiza
##  3 1856  justo_jose_de_urquiza
##  4 1857  justo_jose_de_urquiza
##  5 1858  justo_jose_de_urquiza
##  6 1859  justo_jose_de_urquiza
##  7 1860  santiago_derqui      
##  8 1861  santiago_derqui      
##  9 1862  bartolome_mitre      
## 10 1863  bartolome_mitre      
## # ... with 106 more rows
```

]

.panel[.panel-name[📥Descargar]

.pull-left[

```r
get_speech(year = 1946) 
## # A tibble: 2,786 x 3
##    word           presidente  year
##    <chr>          <chr>      <dbl>
##  1 mensaje        juan_peron  1946
##  2 senor          juan_peron  1946
##  3 presidente     juan_peron  1946
##  4 republica      juan_peron  1946
##  5 compromiso     juan_peron  1946
##  6 acabo          juan_peron  1946
##  7 contraer       juan_peron  1946
##  8 prestando      juan_peron  1946
##  9 juramento      juan_peron  1946
## 10 constitucional juan_peron  1946
## # ... with 2,776 more rows
```
…
]

---

### 🙋 LEGISLATIVAS

.panelset[

.panel[.panel-name[🔍Explorar]

```r
show_available_bills(viewer = F)  
## # A tibble: 3,395 x 5
##    id         descripcion                                    camara    mes  year
##    <chr>      <chr>                                          <chr>   <dbl> <dbl>
##  1 3641-Dipu~ Declarar la necesidad de la Reforma Parcial d~ Diputa~    12  1993
##  2 3652-Dipu~ Declarar la necesidad de la Reforma Parcial d~ Diputa~    12  1993
##  3 3651-Dipu~ Declarar la necesidad de la Reforma Parcial d~ Diputa~    12  1993
##  4 3650-Dipu~ Declarar la necesidad de la Reforma Parcial d~ Diputa~    12  1993
##  5 3649-Dipu~ Declarar la necesidad de la Reforma Parcial d~ Diputa~    12  1993
##  6 3648-Dipu~ Declarar la necesidad de la Reforma Parcial d~ Diputa~    12  1993
##  7 3647-Dipu~ Declarar la necesidad de la Reforma Parcial d~ Diputa~    12  1993
##  8 3646-Dipu~ Declarar la necesidad de la Reforma Parcial d~ Diputa~    12  1993
##  9 3645-Dipu~ Declarar la necesidad de la Reforma Parcial d~ Diputa~    12  1993
## 10 3644-Dipu~ Declarar la necesidad de la Reforma Parcial d~ Diputa~    12  1993
## # ... with 3,385 more rows
```

]

.panel[.panel-name[📥Descargar]

```r
get_bill_votes(bill = "3507-Diputados") 
## # A tibble: 257 x 8
##     name date     votingId legislator    party    region  vote  photoUrl        
##    <int> <chr>       <int> <chr>         <chr>    <chr>   <chr> <chr>           
##  1     1 1996-03~     3507 ABALOVICH, E~ Unión C~ Santia~ NEGA~ https://votacio~
##  2     2 1996-03~     3507 ABAN, Gloria~ Justici~ Salta   AFIR~ https://votacio~
##  3     3 1996-03~     3507 ABASTO, Ange~ Justici~ Buenos~ AFIR~ https://votacio~
##  4     4 1996-03~     3507 ABIHAGGLE, C~ Justici~ Mendoza AUSE~ https://votacio~
##  5     5 1996-03~     3507 ACEVEDO, Ser~ Justici~ Santa ~ AFIR~ https://votacio~
##  6     6 1996-03~     3507 ADAIME, Feli~ Autonom~ Corrie~ AUSE~ https://votacio~
##  7     7 1996-03~     3507 ALARCIA, Mar~ Justici~ Córdoba AUSE~ https://votacio~
##  8     8 1996-03~     3507 ALENDE, Osca~ Intrans~ Buenos~ AUSE~ https://votacio~
##  9     9 1996-03~     3507 ALESSANDRO, ~ FREPASO  Capita~ AUSE~ https://votacio~
## 10    10 1996-03~     3507 ALLENDE, Alf~ Unión C~ Buenos~ NEGA~ https://votacio~
## # ... with 247 more rows
```
…
]
]
]

---

### 🌎 GEO

.panelset[

.panel[.panel-name[🔍Explorar]

```r
show_arg_codes(viewer = F)  # level = "departamento disponible
## # A tibble: 26 x 5
##    id           codprov codprov_censo codprov_iso name_iso                      
##    <chr>        <chr>   <chr>         <chr>       <chr>                         
##  1 ARGENTINA    " "     " "           AR          Argentina                     
##  2 CABA         "01"    "02"          AR-C        Ciudad Autónoma de Buenos Air~
##  3 BUENOS AIRES "02"    "06"          AR-B        Buenos Aires                  
##  4 CATAMARCA    "03"    "10"          AR-K        Catamarca                     
##  5 CORDOBA      "04"    "14"          AR-X        Córdoba                       
##  6 CORRIENTES   "05"    "18"          AR-W        Corrientes                    
##  7 CHACO        "06"    "22"          AR-H        Chaco                         
##  8 CHUBUT       "07"    "26"          AR-U        Chubut                        
##  9 ENTRE RIOS   "08"    "30"          AR-E        Entre Ríos                    
## 10 FORMOSA      "09"    "34"          AR-P        Formosa                       
## # ... with 16 more rows
```
…
]

]

---

### ✉️ ELECCIONES

.panelset[
.panel[.panel-name[🔍Explorar]

```r
show_available_elections() 
## # A tibble: 425 x 5
##    district category round  year  NOMBRE   
##    <chr>    <chr>    <chr>  <chr> <chr>    
##  1 arg      presi    balota 2015  ARGENTINA
##  2 arg      presi    gral   2003  ARGENTINA
##  3 arg      presi    gral   2007  ARGENTINA
##  4 arg      presi    gral   2011  ARGENTINA
##  5 arg      presi    gral   2015  ARGENTINA
##  6 arg      presi    gral   2019  ARGENTINA
##  7 arg      presi    paso   2011  ARGENTINA
##  8 arg      presi    paso   2015  ARGENTINA
##  9 arg      presi    paso   2019  ARGENTINA
## 10 caba     dip      gral   2005  CABA     
## # ... with 415 more rows
```
…
