Herramientas Cuantitativas para el Análisis Político
…
background-image: url(https://github.com/electorArg/polAr/blob/master/hex/hex-polAr.png?raw=true)
background-position: 95% 5%
background-size: 10%

# Juntos por el Cambio 2019: 

### Parámetros de la elección?

```r

library(polAr)

show_available_elections(viewer = F)
## # A tibble: 425 x 5
*##    district category round  year  NOMBRE   
##    <chr>    <chr>    <chr>  <chr> <chr>    
##  1 arg      presi    balota 2015  ARGENTINA
##  2 arg      presi    gral   2003  ARGENTINA
##  3 arg      presi    gral   2007  ARGENTINA
##  4 arg      presi    gral   2011  ARGENTINA
##  5 arg      presi    gral   2015  ARGENTINA
*##  6 arg      presi    gral   2019  ARGENTINA
##  7 arg      presi    paso   2011  ARGENTINA
##  8 arg      presi    paso   2015  ARGENTINA
##  9 arg      presi    paso   2019  ARGENTINA
## 10 caba     dip      gral   2005  CABA     
## # ... with 415 more rows
```
…
background-image: url(https://github.com/electorArg/polAr/blob/master/hex/hex-polAr.png?raw=true)
background-position: 95% 5%
background-size: 10%

## Descarga resultados 
### Presidente 2019 

```r

 get_election_data(district = 'arg', 
*                 category = 'presi',
                  round = 'gral', 
*                 year = 2019)
## # A tibble: 192 x 8
## # Groups:   codprov [24]
##    category round  year codprov name_prov    electores listas    votos
##    <chr>    <chr> <dbl> <chr>   <chr>            <dbl> <chr>     <dbl>
##  1 presi    gral   2019 01      CABA                 0 00024    128795
##  2 presi    gral   2019 01      CABA                 0 00036     58040
##  3 presi    gral   2019 01      CABA                 0 00037    707158
##  4 presi    gral   2019 01      CABA                 0 00039     13559
##  5 presi    gral   2019 01      CABA                 0 00050   1039750
##  6 presi    gral   2019 01      CABA                 0 00108     37404
##  7 presi    gral   2019 01      CABA                 0 blancos   30542
##  8 presi    gral   2019 01      CABA                 0 nulos         0
##  9 presi    gral   2019 02      BUENOS AIRES         0 00024    610009
## 10 presi    gral   2019 02      BUENOS AIRES         0 00036    260597
## # ... with 182 more rows
```
…
## Agrega nombre de listas

```r

gral2019 <- get_election_data(district = 'arg', 
                  category = 'presi', 
                  round = 'gral', 
                  year = 2019) %>%  
* get_names()  # AGREGO NOMRE DE LISTAS AL DF

gral2019
## # A tibble: 192 x 9
## # Groups:   codprov [24]
##    category round  year codprov name_prov  electores listas  votos nombre_lista 
##    <chr>    <chr> <dbl> <chr>   <chr>          <dbl> <chr>   <dbl> <chr>        
##  1 presi    gral   2019 01      CABA               0 00024  1.29e5 CONSENSO FED~
##  2 presi    gral   2019 01      CABA               0 00036  5.80e4 FRENTE DE IZ~
##  3 presi    gral   2019 01      CABA               0 00037  7.07e5 FRENTE DE TO~
##  4 presi    gral   2019 01      CABA               0 00039  1.36e4 FRENTE NOS   
##  5 presi    gral   2019 01      CABA               0 00050  1.04e6 JUNTOS POR E~
##  6 presi    gral   2019 01      CABA               0 00108  3.74e4 UNITE POR LA~
##  7 presi    gral   2019 01      CABA               0 blanc~ 3.05e4 blancos      
##  8 presi    gral   2019 01      CABA               0 nulos  0.     nulos        
##  9 presi    gral   2019 02      BUENOS AI~         0 00024  6.10e5 CONSENSO FED~
## 10 presi    gral   2019 02      BUENOS AI~         0 00036  2.61e5 FRENTE DE IZ~
## # ... with 182 more rows
```
…
