Herramientas Cuantitativas para el Análisis Político
…
###  _**Juan Domingo Perón** (1946)_

---
background-image: url(https://github.com/electorArg/polAr/blob/master/hex/hex-polAr.png?raw=true)
background-position: 95% 5%
background-size: 10%

### Minando texto de `{polAr}`
#### Explorar discursos disponibles con `show_available_speech()`

```r
library(polAr)

show_available_speech()
## # A tibble: 116 x 2
##    year  president            
##    <chr> <chr>                
##  1 1854  justo_jose_de_urquiza
##  2 1855  justo_jose_de_urquiza
##  3 1856  justo_jose_de_urquiza
##  4 1857  justo_jose_de_urquiza
##  5 1858  justo_jose_de_urquiza
##  6 1859  justo_jose_de_urquiza
##  7 1860  santiago_derqui      
##  8 1861  santiago_derqui      
##  9 1862  bartolome_mitre      
## 10 1863  bartolome_mitre      
## # ... with 106 more rows
```

---
background-image: url(https://github.com/electorArg/polAr/blob/master/hex/hex-polAr.png?raw=true)
background-position: 95% 5%
background-size: 10%

### Minando texto de `{polAr}`

#### Descargar con `get_speech()`

```r
get_speech(year = 1991)
## # A tibble: 2,602 x 3
##    word      presidente    year
##    <chr>     <chr>        <dbl>
##  1 congreso  carlos_menem  1991
##  2 llego     carlos_menem  1991
##  3 magno     carlos_menem  1991
##  4 recinto   carlos_menem  1991
##  5 intención carlos_menem  1991
##  6 formular  carlos_menem  1991
##  7 alegato   carlos_menem  1991
##  8 favor     carlos_menem  1991
##  9 gobierno  carlos_menem  1991
## 10 llego     carlos_menem  1991
## # ... with 2,592 more rows
```
…
