Herramientas Cuantitativas para el Análisis Político
…
---

background-image: url(https://cienciadedatos.github.io/datos/reference/figures/logo.png)
background-position: 95% 5%
background-size: 10%

# Data Viz (I)

### `millas` del   [paquete `{datos}`](https://cienciadedatos.github.io/datos/)

```r

library(datos)
as.tibble(millas)
## # A tibble: 234 x 11
##    fabricante modelo cilindrada  anio cilindros transmision traccion ciudad
##    <chr>      <chr>       <dbl> <int>     <int> <chr>       <chr>     <int>
##  1 audi       a4            1.8  1999         4 auto(l5)    d            18
##  2 audi       a4            1.8  1999         4 manual(m5)  d            21
##  3 audi       a4            2    2008         4 manual(m6)  d            20
##  4 audi       a4            2    2008         4 auto(av)    d            21
##  5 audi       a4            2.8  1999         6 auto(l5)    d            16
##  6 audi       a4            2.8  1999         6 manual(m5)  d            18
##  7 audi       a4            3.1  2008         6 auto(av)    d            18
##  8 audi       a4 qu~        1.8  1999         4 manual(m5)  4            18
##  9 audi       a4 qu~        1.8  1999         4 auto(l5)    4            16
## 10 audi       a4 qu~        2    2008         4 manual(m6)  4            20
## # ... with 224 more rows, and 3 more variables: autopista <int>,
## #   combustible <chr>, clase <chr>
```
…
